Czas wykonania:13392
71.67532989556078
43.07436175955976
32.72448516451169
33.377096908632225
27.006495738243313
23.81385906086721
20.30089673737326
18.189721441071853
11.912524313516954
11.65806500200744
9.138759592487316
11.016970312330562
9.308833721480832
6.814221013968003
5.66089508537911
5.316459071042623
3.7098579726010743
2.806582327653231
3.1893407515700036
1.769669817073064
1.3159283415919554
1.1521721848896425
0.8179504576665919
0.6246552283010082
0.5900500833878138
0.5757211653045339
0.5548058747806127
0.5376676539842224
0.5037227185350188
0.48048761056101175
0.45389515217317417
0.43177198958797736
0.41213763817515675
0.3931448956423668
0.3758763502883668
0.360378955862354
0.3463668159534062
0.3336064907013295
0.3219196177037381
0.3111638546408547
0.3012225688674353
0.2919987294128272
0.2834107566587014
0.27538947494453864
0.2678757884316187
0.2608188720100841
0.2541747441617674
0.2479051293019722
0.24197654261061824
0.23635954773380827
0.2310281500782818
0.22595929738604878
0.22113246587992252
0.21652931518663646
0.21213339893803335
0.20792992075055283
0.20390552742309892
0.2000481328421213
0.1963467673630419
0.192791448438739
0.18937306905498838
0.1860833011587754
0.18291451176519358
0.17985968983009742
0.17691238229998907
0.17406663801403494
0.1713169583481634
0.1686582536676079
0.16608580479965138
0.1635952288586509
0.16118244885543567
0.1588436666065988
0.15657533852907582
0.15437415396412277
0.15223701572431256
0.15016102259905406
0.14814345358968553
0.14618175367542963
0.14427352093733395
0.14241649488940059
0.1406085458850851
0.13884766548365507
0.13713195767496947
0.13545963087341414
0.13382899060226183
0.13223843279889286
0.13068643767927898
0.1291715641070873
0.1276924444188446
0.12624777966191694
0.12483633520674647
0.12345693669888125
0.12210846631996733
0.12078985933005558
0.11950010086641083
0.11823822297650145
0.11700330186507779
0.11579445533721018
0.11461084042092136
0.11345165115460261
0.11231611652581129
0.11120349854928685
0.11011309047314481
0.10904421510321384
0.10799622323637438
0.10696849219457587
0.10596042445193016
0.10497144634794378
0.10400100688053866
0.1030485765730526
0.10211364640989158
0.10119572683594957
0.10029434681530794
0.09940905294508894
0.09853940862066886
0.09768499324875413
0.09684540150509742
0.0960202426338802
0.09520913978601486
0.09441172939382764
0.09362766057977463
0.0928565945970138
0.09209820429982057
0.09135217364197551
0.0906181972013922
0.08989597972937066
0.08918523572298238
0.08848568901919154
0.08779707240941549
0.08711912727331843
0.08645160323070963
0.08579425781049868
0.08514685613572333
0.08450917062373936
0.08388098070071096
0.0832620725296058
0.08265223875094198
0.082051278235589
0.08145899584896282
0.08087520222599943
0.08029971355633109
0.07973235137912049
0.07917294238704467
0.07862131823895126
0.07807731538073484
0.0775407748740127
0.07701154223220169
0.07648946726362012
0.07597440392126277
0.07546621015891652
0.07496474779330305
0.07446988237195103
0.07398148304652201
0.07349942245132272
0.07302357658675815
0.07255382470748692
0.07209004921505968
0.0716321355548278
0.07117997211692532
0.07073345014113236
0.07029246362544682
0.06985690923818996
0.06942668623348953
0.06900169636998685
0.06858184383262372
0.0681670351573734
0.06775717915878546
0.06735218686022103
0.06695197142666198
0.06655644809998272
0.06616553413657895
0.06577914874725305
0.06539721303925955
0.06501964996042187
0.06464638424523175
0.06427734236284985
0.06391245246692893
0.06355164434718559
0.06319484938264723
0.0628420004965093
0.06249303211253526
0.06214788011293976
0.061806481797693276
0.06146877584519623
0.06113470227426413
0.060804202407375676
0.0604772188351337
0.060153695381892
0.059833577072503696
0.05951681010014814
0.05920334179519524
0.058893120595068994
0.058586096015071
0.05828221862013017
0.05798143999744292
0.05768371272997128
0.057388990370768125
0.05709722741809811
0.05680837929132697
0.056522402307550186
0.056239253658934896
0.0559588913907501
0.05568127438006031
0.05540636231505847
0.055134115675017775
0.054864495710837895
0.054597464426168314
0.054332984559085154
0.054071019564305864
0.05381153359592084
0.053554491490626265
0.0532998587514391
0.05304760153188066
0.052797686620610344
0.05255008142649659
0.05230475396410895
0.05206167283961943
0.0518208072370968
0.051582126905183635
0.051345602144142494
0.051111203793258564
0.0508789032185894
0.0506486723010484
0.05042048342481228
0.05019430946604276
0.049970123781911846
0.049747900199920994
0.04952761300750599
0.04930923694191711
0.04909274718036758
0.04887811933044096
0.04866532942075002
0.04845435389183896
0.048245169587322306
0.048037753745252536
0.04783208398970973
0.04762813832260719
0.04742589511570533
0.04722533310282931
0.04702643137228244
0.04682916935945106
0.046633526839595096
0.046439483920817724
0.04624702103721036
0.046056118942166935
0.04586675870186334
0.045678921688895965
0.0454925895760765
0.04530774433037766
0.04512436820702438
0.04494244374372954
0.04476195375506622
0.04458288132697582
0.04440520981140674
0.04422892282108009
0.04405400422437904
0.04388043814035911
0.04370820893387453
0.043537301210818835
0.04336769981347662
0.04319938981598162
0.04303235651988109
0.04286658544980108
0.04270206234921141
0.042538773176287015
0.04237670409986313
0.04221584149548231
0.042056171941530496
0.04189768221545926
0.04174035929009349
0.041584190330020115
0.04142916268805835
0.041275263901806594
0.04112248169026639
0.04097080395053984
0.040820218754599735
0.040670714346129365
0.04052227913743164
0.040374901706404114
0.04022857079358014
0.040083275299232994
0.03993900428054134
0.03979574694881646
0.03965349266678694
0.03951223094594159
0.03937195144392815
0.03923264396200643
0.039094298442554715
0.0389569049666288
0.038820453751570554
0.03868493514866702
0.03855033964085721
0.03841665784048637
0.03828388048710593
0.03815199844531837
0.038021002702666236
0.03789088436756359
0.03776163466726943
0.03763324494590179
0.03750570666249167
0.03737901138907589
0.03725315080882802
0.03712811671422635
0.037003901005257876
0.03688049568765824
0.03675789287118569
0.03663608476792925
0.0365150636906496
0.036394822051152534
0.03627535235869378
0.0361566472184146
0.03603869932980797
0.03592150148521339
0.03580504656834123
0.035689327552825084
0.0355743375008013
0.03546006956151574
0.035346516969956936
0.0352336730455148
0.0351215311906644
0.035010084889674664
0.03489932770734107
0.034789253287741746
0.034679855353016736
0.03457112770216999
0.034463064209893125
0.0343556588254108
0.03424890557134761
0.03414279854261518
0.0340373319053198
0.03393249989568963
0.03382829681902165
0.03372471704864728
0.033621755024916676
0.03351940525420119
0.03341766230791385
0.033316520821546944
0.033215975493726985
0.033116021085286135
0.0330166524183504
0.0329178643754433
0.03281965189860584
0.03272200998853151
0.03262493370371643
0.03252841815962453
0.03243245852786656
0.03233705003539419
0.03224218796370703
0.03214786764807422
0.03205408447676848
0.031960833890313935
0.03186811138074641
0.03177591249088627
0.031684232813623675
0.03159306799121587
0.03150241371459654
0.031412265722696044
0.031322619801774074
0.031233471784762594
0.03114481755062
0.031056653023696125
0.03096897417310768
0.030881777012124054
0.03079505759756287
0.03070881202919601
0.03062303644916493
0.030537727041405872
0.03045288003108417
0.03036849168403764
0.03028455830622942
0.030201076243209304
0.030118041879583744
0.030035451638494606
0.029953301981105844
0.029871589406099065
0.029790310449176332
0.029709461682571325
0.02962903971456839
0.029549041189028583
0.02946946278492398
0.029390301215878423
0.02931155322971636
0.02923321560801806
0.029155285165682065
0.02907775875049429
0.029000633242704202
0.028923905554606846
0.028847572630132
0.02877163144443936
0.028696079003519847
0.0286209123438033